{
  "name": "Awash Ethiopian Restaurant",
  "neighborhood": "North Park",
  "foodType": "Ethiopian",
  "address": "2884 El Cajon Blvd",
  "address2": "San Diego, CA 92104",
  "yelpRating": "★★★★✰",
  "delivery": "Doordash",
  "takeout": "Yes",
  "site": "https://www.yelp.com/biz/awash-ethiopian-restaurant-san-diego-2"
}
