{
  "name": "Flavors of East Africa",
  "neighborhood": "North Park / University Heights",
  "foodType": "East African",
  "address": "2322 El Cajon Blvd",
  "address2": "San Diego, CA, 92104",
  "yelpRating": "★★★★☆",
  "delivery": "Grubhub / Doordash / Postmates / Uber Eats",
  "takeout": "Yes",
  "site": "https://www.flavorsofeastafrica.com/home"
}
