{
  "name": "Coops West Texas BBQ",
  "neighborhood": "Lemon Grove",
  "foodType": "BBQ",
  "address": "2625 Lemon Grove Ave",
  "address2": "Lemon Grove, CA 91945",
  "yelpRating": "★★★★✰",
  "delivery": "Grubhub / Doordash / Postmates / Uber Eats",
  "takeout": "Yes",
  "site": "https://www.coopsbbq.com/"
}
