{
  "name": "Louisiana Purchase",
  "neighborhood": "North Park",
  "foodType": "New Orleans",
  "address": "2305 University Ave",
  "address2": "San Diego, CA 92104",
  "yelpRating": "★★★★☆",
  "delivery": "Grubhub / Dordash / Seamless",
  "takeout": "Yes",
  "site": "https://www.louisianapurchasesd.com/"
}
