{
  "name": "Rhythm’s Chicken and Waffles",
  "neighborhood": "Pacific Beach",
  "foodType": "Southern",
  "address": "1136 Garnet Ave",
  "address2": "San Diego, CA 92109",
  "yelpRating": "★★★★☆",
  "delivery": "Grubhub",
  "takeout": "Yes",
  "site": "http://www.rhythmanddesserts.com/"
}
