{
  "name": "Surf and Soul Spot",
  "neighborhood": "College East / La Mesa",
  "foodType": "Soul / Seafood",
  "address": "7229 El Cajon Blvd",
  "address2": "San Diego, CA 92115",
  "yelpRating": "★★★★✰",
  "delivery": "Grubhub / Doordash",
  "takeout": "Yes",
  "site": "http://www.surfandsoulspot.com/"
}
