{
  "name": "Tropical Savor Bar and Grill",
  "neighborhood": "Gaslamp",
  "foodType": "Latin-Caribbean",
  "address": "729 4th Ave",
  "address2": "San Diego, CA 92101",
  "yelpRating": "★★★★☆",
  "delivery": "Grubhub / Doordash / Postmates",
  "takeout": "Yes",
  "site": "https://www.yelp.com/biz/tropical-savor-bar-and-grill-san-diego?osq=tropical+savor+bar+and+grill"
}
